{
  "meta": {
    "image": "atlas.png",
    "size": { "w": 1471, "h": 2700 },
    "scale": "1"
  },
  "frames": {
    "BG_Final.png": {
      "frame": { "x": 0, "y": 0, "w": 1080, "h": 2700 },
      "rotated": false,
      "trimmed": false,
      "spriteSourceSize": { "x": 0, "y": 0, "w": 1080, "h": 2700 },
      "sourceSize": { "w": 1080, "h": 2700 }
    },
    "BTN_Selfie.png": {
      "frame": { "x": 1080, "y": 0, "w": 391, "h": 188 },
      "rotated": false,
      "trimmed": false,
      "spriteSourceSize": { "x": 0, "y": 0, "w": 391, "h": 188 },
      "sourceSize": { "w": 391, "h": 188 }
    },
    "BTN_Selfie_tap.png": {
      "frame": { "x": 1080, "y": 188, "w": 391, "h": 188 },
      "rotated": false,
      "trimmed": false,
      "spriteSourceSize": { "x": 0, "y": 0, "w": 391, "h": 188 },
      "sourceSize": { "w": 391, "h": 188 }
    }
  }
}
